{
    "import_contacts": {
        "title": "Import Contacts",
        "tab_manual_import": "Manual Import",
        "tab_auto_import": "Automatic Import",
        "import_recipients": "Import Recipients",
        "csv_title": "Download the .csv file to enter and import recipients.  You can open the .csv file with Excel or other spreadsheet applications.",
        "csv_title_location": "Download the .csv file to enter and import recipients with their locations.  You can open the .csv file with Excel and other spreadsheet applications.",
        "step1": "1.",
        "step2": "2.",
        "step3": "3.",
        "step4": "4.",
        "step5": "5.",
        "msg_drop": "Browse to find your edited .csv file.",
        "template_file_btn": "Download File",
        "importing": "Importing...",
        "download_text": "<strong>Download</strong> the .csv file to import recipients.",
        "download_text_location": "<strong>Download</strong> the .csv file to import recipients and locations.",
        "download_file": "The <strong>SSTOcontacts_en.csv</strong> file will be placed in your <strong>Downloads</strong> folder.",
        "template_filename": "SSTOcontacts_en.csv",
        "add_text": "<strong>Enter</strong> recipients into the .csv file.",
        "add_text_location": "<strong>Enter</strong> recipients and locations into the .csv file.",
        "note_text": "Include a unique name and email address for each recipient.",
        "note_text_location": "Include a unique name and email address for each recipient. Locations are optional.",
        "upload_text": "<strong>Upload</strong> your edited .csv file.",
        "text_holder": "Select a .csv file",
        "select_text": "<strong>Select</strong> how to import your recipients:",
        "select_text_location": "<strong>Select</strong> how to import your recipients and locations:",
        "replace_text": "<strong>Replace  all</strong> current recipients with the recipients in the CSV file.",
        "replace_text_location": "<strong>Replace  all</strong> current recipients and add new locations in the .csv file",
        "add_update_text": "<strong>Update and add</strong> to your current recipients",
        "add_update_text_location": "<strong>Update and add</strong> to your current recipients and add new locations",
        "changing_text": "Changes to your recipient list will not change the package history.",
        "importing_recipients": "Importing Recipients",
        "close_btn": "Close",
        "contacts_were_imported": "{count, plural, one{<strong>#</strong> recipient was imported.} other{<strong>#</strong> recipients were imported.}}",
        "duplicates_resolved": "{count, plural, one{<strong>#</strong> duplicate resolved.} other {<strong>#</strong> duplicates resolved.}}",
        "duplicate_appear": "{count, plural, one{<strong>#</strong> recipient appears to be duplicate. You’ll need to resolve this.} other{<strong>#</strong> recipients appear to be duplicate. You’ll need to resolve these.}}",
        "done_btn": "Done",
        "start_import_btn": "Start Import",
        "resolve_duplicate_btn": "Resolve Duplicates",
        "cancel_import_btn": "Cancel Import",
        "validate_missing_error": "Select a .csv file",
        "import_error_title": "Import Stopped",
        "import_error_body_bold": "<strong>You need more space to add recipients.</strong>",
        "import_error_body": "{xval, plural, one{You need space for <strong>#</strong> more recipient to import this list. <a href='mailto:{hreflink}' target='_top'>Contact Pitney Bowes</a> to upgrade your recipient subscription.} other{You need space for <strong>#</strong> more recipients to import this list. <a href='mailto:{hreflink}' target='_top'>Contact Pitney Bowes</a> to upgrade your recipient subscription.}}",
        "import_format_error_title": "Your .csv file contains errors.",
        "import_format_error_body_title": "Open your .csv file and check for the following errors.",
        "import_format_error_body_li_first": "A unique email address",
        "import_format_error_body_li_second": "A unique name",
        "import_format_error_body_li_third": "No other information",
        "import_format_error_body_fourth": "After you've fixed errors, try importing it again.",
        "import_resolve_duplicate_title": "Select recipients to keep",
        "import_resolve_duplicate_title_body": "{count, plural, one{<strong>#</strong> possible duplicate. Select the imported or existing recipient to keep.} other{<strong>#</strong> possible duplicates. Select the imported or existing recipients to keep.}}",
        "save_import": "Save and Import",
        "cancel_import": "Cancel Import",
        "imported_title": "Imported",
        "existing_title": "Existing",
        "after_merged_title": "After Import",
        "import_exceeds_limit": "{count, plural, one{Import Stopped. You'll need to remove <strong>#</strong> recipient to import this list.} other{Import Stopped. You'll need to remove <strong>#</strong> recipients to import this list.}}",
        "discard_were_imported": "{count, plural, one{<strong>#</strong> recipient will be discarded.} other{<strong>#</strong> recipients will be discarded.}}",
        "discard_were_imported_pkg": "The package history will be maintained.",
        "import_error_title_discard": "Are you sure you want to discard recipients?",
        "resolve_duplicate_btn_discard": "Discard",
        "cancel_import_btn_stay": "Stay on Page",
        "browse_btn": "Browse",
        "contacts_ready_imported": "{count, plural, one{<strong>#</strong> recipient ready to import.} other{ <strong>#</strong> recipients ready to import.}}",
        "replace_confirm_title": "Are you sure you want to replace all recipients?",
        "replace_confirm_body": "All recipients will be replaced with the imported list.",
        "replace_all_btn": "Replace All",
        "location_tip_message": "Add recipient location details (e.g., buildings, floors and offices) with <a href='#/settings/locations_settings'>Locations</a>",
        "location_type": "<strong>Location types: </strong>Building, Floor, Office",
        "select_delimiter_text": "<strong>Select</strong> a text delimiter (usually a comma).",
        "comma": "Comma",
        "tab": "Tab",
        "semicolon": "Semicolon",
        "space": "Space",
        "other": "Other",
        "error": {
            "row_header": "Row {{row}}",
            "too_few_cols": "Missing required information",
            "missing_first_name": "Missing first name",
            "missing_email": "Missing email address",
            "bad_email": "Email address format is invalid",
            "first_name_too_long": "First name is too long",
            "middle_too_long": "Middle name is too long",
            "last_name_too_long": "Last name is too long",
            "email_too_long": "Email address is too long",
            "dup_header": "Duplicate recipients"
        },
        "general_error_toast": "Error occurred.",
        "end": "end"
    },
    "auto_import": {
        "sub_text_1": "Set up a schedule to <strong>replace all</strong> current recipients with recipients in the imported .csv file. The package history will be maintained.",
        "sub_text_2": "Need help? Ask your IT administrator for the file access and location information.",
        "step1": "1. Recipient List Template",
        "step1_sub_text": "Your content must be in the same order as the .csv template. To get started, download the template file.",
        "step2": "2. File Access",
        "step2_info_text": "File access information may be case sensitive.",
        "input_file_label": "File path, including file name",
        "input_username_label": "{{fileTypeName}} Username",
        "input_password_label": "{{fileTypeName}} Password",
        "FTP": "FTP",
        "SFTP": "SFTP",
        "file_path_helper": "e.g. <server><:port>/<file name>",
        "step3": "3.",
        "template_file_btn": "Download Template",
        "test_access_btn": "Test Access",
        "test_access_in_progress": "Checking connection",
        "test_access_success": "Your scheduled import is ready.",
        "test_access_server_error": "We couldn't connect to your server. Check your FTP info and try again.",
        "test_access_file_not_found": "We couldn't find your file. Check the file name and path.",
        "test_access_incorrect_login": "This username and password is not valid.",
        "test_access_invalid_server_address": "Enter a valid server address.",
        "cancel_btn": "Cancel",
        "save_btn": "Save",
        "msg_warning": "Automatic imports will <strong>replace all</strong> current recipients. You cannot undo this action.",
        "importSchedule": "3. Import Schedule",
        "repeats_on": "Repeats on",
        "time": "Time",
        "nextImport": "Next Import",
        "lastImport": "Last Import",
        "select": "Select",
        "no_scheduled_import": "No scheduled import.",
        "import_now_btn": "Import Now",
        "popup_blocked_title": "Are you sure you want to replace all recipients?",
        "body_text": "All recipients will be replaced with the imported list.",
        "replace_btn": "Replace All",
        "sun": "Sun",
        "mon": "Mon",
        "tue": "Tue",
        "wed": "Wed",
        "thu": "Thu",
        "fri": "Fri",
        "sat": "Sat",
        "selection_saved_success": "Selection saved",
        "text_success_msg": "<strong>{{countRecipient}}</strong> recipients were imported",
        "text_import_in_progress": "Importing",
        "end": "end"
    }
}
